namespace = xhazobkult_events



country_event = {
	id = xhazobkult_events.0
	title = xhazobkult_events.1.t
	desc = xhazobkult_events.1.d
	picture = MILITARY_CAMP_eventPicture
	
	is_triggered_only = yes
	hidden = yes
	
	trigger = {
		religion = xhazobkult
		NOT = { is_year = 1445 }
	}
	
	option = {
		country_event = {
			id = xhazobkult_events.2000
		}
	}
}




###########################
###   Flavour Events    ###
###########################

country_event = { #Local gnolls do their own ritual
	id = xhazobkult_events.10
	title = xhazobkult_events.10.t
	desc = xhazobkult_events.10.d
	picture = MILITARY_CAMP_eventPicture
	
	is_triggered_only = yes
	
	trigger = {
		religion = xhazobkult
		any_owned_province = {
			has_gnollish_minority_trigger = yes
			NOT = { religion = xhazobkult }
		}
	}
	
	immediate = {
		random_owned_province = {
			limit = { has_gnollish_minority_trigger = yes NOT = { religion = xhazobkult } }
			save_event_target_as = xhazobkult_random_sacrifice
		}
	}

	option = { #Recruit them
		name = xhazobkult_events.10.b
		ai_chance = { factor = 1 }
		add_manpower = 1
		add_patriarch_authority = 0.001
		event_target:xhazobkult_random_sacrifice = {
			add_devastation = 25
		}
	}
	option = { #stop them!
		name = xhazobkult_events.10.c
		ai_chance = { factor = 1 }
		add_estate_loyalty = {
			estate = estate_monstrous_tribes
			loyalty = -10
		}
	}
}

country_event = { #Support of the Initiated
	id = xhazobkult_events.11
	title = xhazobkult_events.11.t
	desc = xhazobkult_events.11.d
	picture = MILITARY_CAMP_eventPicture
	
	is_triggered_only = yes
	
	trigger = {
		religion = xhazobkult
		is_at_war = yes
		any_owned_province = {
			has_state_patriach = yes
		}
	}
	
	option = { #Our Enemies will Bleed!
		name = xhazobkult_events.11.a
		ai_chance = { factor = 1 }
		custom_tooltip = xhazobkult_support_of_the_initiated_tt
		hidden_effect = {
			every_owned_province = {
				limit = { has_state_patriach = yes }
				owner = {
					random_list = {
						1 = { if = { limit = { capital_scope = { controlled_by = ROOT has_siege = no } } capital_scope = { infantry = ROOT infantry = ROOT } } else = { add_manpower = 1 } }
						2 = { if = { limit = { capital_scope = { controlled_by = ROOT has_siege = no } } capital_scope = { infantry = ROOT } } else = { add_manpower = 0.5 } }
						1 = { add_manpower = 1.5 }
						1 = { add_manpower = 1 }
						1 = { add_manpower = 0.5 }
						6 = { }
					}
				}
			}
		}
	}
}

country_event = { #Gnolls being lazy
	id = xhazobkult_events.12
	title = xhazobkult_events.12.t
	desc = xhazobkult_events.12.d
	picture = MILITARY_CAMP_eventPicture
	
	is_triggered_only = yes
	
	trigger = {
		religion = xhazobkult
		is_at_war = no
		any_owned_province = {
			has_state_patriach = yes
		}
	}
	
	option = { #It is their right
		name = xhazobkult_events.12.a
		ai_chance = { factor = 1 }
		custom_tooltip = xhazobkult_decadence_of_the_kult_tt
		hidden_effect = {
			every_owned_province = {
				limit = { has_state_patriach = yes }
				add_province_modifier = {
					name = xhazobkult_decadence_of_the_kult
					duration = 3650
				}
			}
		}
	}
}

country_event = { #The Voice from Beyond
	id = xhazobkult_events.13
	title = xhazobkult_events.13.t #All initiated hear a voice whispering to them
	desc = xhazobkult_events.13.d
	picture = MILITARY_CAMP_eventPicture
	
	is_triggered_only = yes
	
	trigger = {
		religion = xhazobkult
		any_owned_province = {
			has_state_patriach = yes
		}
	}
	
	option = { #We will listen
		name = xhazobkult_events.13.a
		ai_chance = { factor = 1 }
		random_list = {
			1 = {
				custom_tooltip = xhazobkult_gain_cult_prov_adm_tt
				hidden_effect = {
					if = {
						limit = { num_of_owned_provinces_with = { value = 30 has_state_patriach = yes } }
						add_adm_power = 300
					}
					else = {
						every_owned_province = {
							limit = { has_state_patriach = yes }
							owner = { add_adm_power = 10 }
						}
					}
				}
			}
			1 = {
				custom_tooltip = xhazobkult_gain_cult_prov_mil_tt
				hidden_effect = {
					if = {
						limit = { num_of_owned_provinces_with = { value = 30 has_state_patriach = yes } }
						add_mil_power = 300
					}
					else = {
						every_owned_province = {
							limit = { has_state_patriach = yes }
							owner = { add_mil_power = 10 }
						}
					}
				}
			}
			1 = {
				custom_tooltip = xhazobkult_gain_cult_prov_dip_tt
				hidden_effect = {
					if = {
						limit = { num_of_owned_provinces_with = { value = 30 has_state_patriach = yes } }
						add_dip_power = 300
					}
					else = {
						every_owned_province = {
							limit = { has_state_patriach = yes }
							owner = { add_dip_power = 10 }
						}
					}
				}
			}
		}
	}
}

country_event = { #The Slacking at the Slave Estates
	id = xhazobkult_events.14
	title = xhazobkult_events.14.t
	desc = xhazobkult_events.14.d
	picture = MILITARY_CAMP_eventPicture
	
	is_triggered_only = yes
	
	trigger = {
		religion = xhazobkult
		any_owned_province = {
			has_province_modifier = xhazobkult_slave_estate
		}
	}
	
	option = { #The Brand of the Xhaz will set them to work
		name = xhazobkult_events.14.a
		ai_chance = { factor = 1 }
		add_patriarch_authority = -0.1
		custom_tooltip = xhazobkult_brand_of_the_xhaz_tt
		tooltip = {
			random_owned_province = {
				limit = { has_province_modifier = xhazobkult_slave_estate }
				add_province_modifier = {
					name = xhazobkult_slave_estate_brand_of_the_xhaz
					duration = 3650
				}
			}
		}
		hidden_effect = {
			every_owned_province = {
				limit = { has_province_modifier = xhazobkult_slave_estate }
				add_province_modifier = {
					name = xhazobkult_slave_estate_brand_of_the_xhaz
					duration = 3650
				}
			}
		}
	}
	option = { #Let them, maybe they'll calm down
		name = xhazobkult_events.14.b
		ai_chance = { factor = 1 }
		custom_tooltip = xhazobkult_brand_of_the_xhaz_tt
		tooltip = {
			random_owned_province = {
				limit = { has_province_modifier = xhazobkult_slave_estate }
				add_province_modifier = {
					name = xhazobkult_slave_estate_slacking_off
					duration = 3650
				}
			}
		}
		hidden_effect = {
			every_owned_province = {
				limit = { has_province_modifier = xhazobkult_slave_estate }
				add_province_modifier = {
					name = xhazobkult_slave_estate_slacking_off
					duration = 3650
				}
			}
		}
	}
}

#province_event = { #Gnolls flock to $PROVINCENAME$
#	id = xhazobkult_events.17
#	title = xhazobkult_events.17.t
#	desc = xhazobkult_events.17.d
#	picture = MILITARY_CAMP_eventPicture
#	
#	trigger = {
#		owner = { has_country_modifier = gnollish_administration }
#		religion = xhazobkult
#		#has_building = xhazobkult_pyre
#		#has_state_edict = gather_sacrifices_edict
#	}
#	
#	mean_time_to_happen = {
#		days = 1825
#	}
#	is_mtth_scaled_to_size = 1
#	
#	option = {
#		name = xhazobkult_events.17.a
#		ai_chance = { factor = 1 }
#		
#		add_gnollish_minority_size_effect = yes
#		if = {
#			limit = { OR = { has_gnollish_majority_trigger = yes has_large_gnollish_minority_trigger = yes } }
#			random = {
#				chance = 50
#				random_list = {
#					1 = { add_base_tax = 1 }
#					1 = { add_base_production = 1 }
#					1 = { add_base_manpower = 1 }
#				}
#			}
#		}
#	}
#}

#province_event = { #Pyre sabotaged in $PROVINCENAME$
#	id = xhazobkult_events.18
#	title = xhazobkult_events.18.t
#	desc = xhazobkult_events.18.d
#	picture = MILITARY_CAMP_eventPicture
#	
#	trigger = {
#		has_building = xhazobkult_pyre
#		owner = { religion = xhazobkult }
#	}
#	
#	mean_time_to_happen = {
#		days = 1825
#	}
#	is_mtth_scaled_to_size = 1
#	
#	option = {
#		name = xhazobkult_events.18.a
#		ai_chance = { factor = 1 }
#		
#		remove_building = xhazobkult_pyre
#	}
#}

province_event = { #Demonic horde in $PROVINCENAME$
	id = xhazobkult_events.19
	title = xhazobkult_events.19.t
	desc = xhazobkult_events.19.d
	picture = MILITARY_CAMP_eventPicture
	
	is_triggered_only = yes
	
	trigger = {
		owner = { religion = xhazobkult }
	}
	
	immediate = {
		demonic_horde_rebels = 1
	}
	
	option = {
		name = xhazobkult_events.19.a
		ai_chance = { factor = 1 }
		tooltip = {
			demonic_horde_rebels = 1
		}
	}
}


#Demonic Pact
country_event = {
	id = xhazobkult_events.1000
	title = xhazobkult_events.1000.t
	desc = xhazobkult_events.1000.d
	picture = MILITARY_CAMP_eventPicture
	
	is_triggered_only = yes
	
	option = { #Offer a sacrifice of your own blood
		name = xhazobkult_events.1000.a
		trigger = { NOT = { has_ruler_flag = xhazobkult_sacrifice_of_own_blood } has_heir = yes }
		ai_chance = { factor = 1 }
		kill_heir = { allow_new_heir = no }
		set_ruler_flag = xhazobkult_sacrifice_of_own_blood
		
		hidden_effect = {
			country_event = {
				id = xhazobkult_events.1001
			}
		}
	}
	option = { #Offer a sacrifice of the masses
		name = xhazobkult_events.1000.b
		trigger = { NOT = { has_ruler_flag = xhazobkult_sacrifice_of_the_masses } capital_scope = { development = 6 } }
		ai_chance = { factor = 1 }
		capital_scope = {
			add_base_tax = -1
			add_base_production = -1
			add_base_manpower = -1
			add_devastation = 30
		}
		set_ruler_flag = xhazobkult_sacrifice_of_the_masses
		
		hidden_effect = {
			country_event = {
				id = xhazobkult_events.1001
			}
		}
	}
	option = { #Offer a sacrifice of might
		name = xhazobkult_events.1000.c
		trigger = { NOT = { has_ruler_flag = xhazobkult_sacrifice_of_might } mil = 1 }
		ai_chance = { factor = 1 }
		change_mil = -1
		set_ruler_flag = xhazobkult_sacrifice_of_might
		
		hidden_effect = {
			country_event = {
				id = xhazobkult_events.1001
			}
		}
	}
	option = { #Offer a sacrifice of mind
		name = xhazobkult_events.1000.dd
		trigger = { NOT = { has_ruler_flag = xhazobkult_sacrifice_of_mind } adm = 1 }
		ai_chance = { factor = 1 }
		change_adm = -1
		set_ruler_flag = xhazobkult_sacrifice_of_mind
		
		hidden_effect = {
			country_event = {
				id = xhazobkult_events.1001
			}
		}
	}
	option = { #Offer a sacrifice of speech
		name = xhazobkult_events.1000.e
		trigger = { NOT = { has_ruler_flag = xhazobkult_sacrifice_of_speech } dip = 1 }
		ai_chance = { factor = 1 }
		change_dip = -1
		set_ruler_flag = xhazobkult_sacrifice_of_speech
		
		hidden_effect = {
			country_event = {
				id = xhazobkult_events.1001
			}
		}
	}
	option = { #Offer a sacrifice of gold
		name = xhazobkult_events.1000.f
		trigger = { NOT = { has_ruler_flag = xhazobkult_sacrifice_of_gold } years_of_income = 0.5 }
		ai_chance = { factor = 1 }
		add_years_of_income = -0.5
		set_ruler_flag = xhazobkult_sacrifice_of_gold
		
		hidden_effect = {
			country_event = {
				id = xhazobkult_events.1001
			}
		}
	}
	option = { #Offer a sacrifice of chaos
		name = xhazobkult_events.1000.g
		trigger = { NOT = { has_ruler_flag = xhazobkult_sacrifice_of_chaos } stability = -2 }
		ai_chance = { factor = 1 }
		add_stability = -1
		set_ruler_flag = xhazobkult_sacrifice_of_chaos
		
		hidden_effect = {
			country_event = {
				id = xhazobkult_events.1001
			}
		}
	}
	option = { #Offer a sacrifice of service
		name = xhazobkult_events.1000.h
		trigger = { NOT = { has_ruler_flag = xhazobkult_sacrifice_of_servitude } }
		ai_chance = { factor = 1 }
		custom_tooltip = xhazobkult_sacrifice_of_servitude_tt
		set_ruler_flag = xhazobkult_sacrifice_of_servitude
		
		hidden_effect = {
			country_event = {
				id = xhazobkult_events.1001
			}
		}
	}
	
	option = { #Wait for the demon's reply
		name = xhazobkult_events.1000.i
		ai_chance = { factor = 1 }
		trigger = {
			OR = {
				has_ruler_flag = xhazobkult_sacrifice_of_own_blood
				has_ruler_flag = xhazobkult_sacrifice_of_the_masses
				has_ruler_flag = xhazobkult_sacrifice_of_might
				has_ruler_flag = xhazobkult_sacrifice_of_mind
				has_ruler_flag = xhazobkult_sacrifice_of_speech
				has_ruler_flag = xhazobkult_sacrifice_of_gold
				has_ruler_flag = xhazobkult_sacrifice_of_chaos
				has_ruler_flag = xhazobkult_sacrifice_of_servitude
			}
		}
		highlight = yes
		
		custom_tooltip = xhazobkult_wait_for_the_demons_response_tt
		hidden_effect = {
			country_event = {
				id = xhazobkult_events.1002
				days = 1
			}
		}
	}
}
country_event = {
	id = xhazobkult_events.1001
	title = xhazobkult_events.1001.t
	desc = xhazobkult_events.1001.d
	picture = MILITARY_CAMP_eventPicture
	
	is_triggered_only = yes
	hidden = yes
	
	option = {
		name = xhazobkult_events.1001.a
		ai_chance = { factor = 1 }
		
		country_event = {
			id = xhazobkult_events.1000
		}
	}
}
country_event = { #The demon
	id = xhazobkult_events.1002
	title = xhazobkult_events.1002.t
	desc = xhazobkult_events.1002.d
	picture = MILITARY_CAMP_eventPicture
	
	is_triggered_only = yes
	hidden = yes
	
	option = { #Demon agrees
		name = xhazobkult_events.1001.a
		ai_chance = {
			factor = 5
		}
		
		country_event = {
			id = xhazobkult_events.1003
		}
	}
	option = { #Demon refuses
		name = xhazobkult_events.1001.a
		ai_chance = {
			factor = 10
			modifier = {
				factor = 0.95
				ruler_has_personality = zealot_personality
			}
			modifier = {
				factor = 0.95
				ruler_has_personality = conqueror_personality
			}
			modifier = {
				factor = 0.95
				ruler_has_personality = bold_fighter_personality
			}
			modifier = {
				factor = 0.95
				ruler_has_personality = charismatic_negotiator_personality
			}
			modifier = {
				factor = 0.95
				ruler_has_personality = silver_tongue_personality
			}
			modifier = {
				factor = 0.95
				ruler_has_personality = fierce_negotiator_personality
			}
			modifier = {
				factor = 0.95
				ruler_has_personality = embezzler_personality
			}
			modifier = {
				factor = 0.95
				ruler_has_personality = drunkard_personality
			}
			modifier = {
				factor = 0.95
				ruler_has_personality = sinner_personality
			}
			modifier = {
				factor = 0.95
				ruler_has_personality = greedy_personality
			}
			modifier = {
				factor = 0.90
				ruler_has_personality = cruel_personality
			}
			modifier = {
				factor = 0.90
				ruler_has_personality = malevolent_personality
			}
			modifier = {
				factor = 0.95
				mil = 4
			}
			modifier = {
				factor = 0.95
				mil = 5
			}
			modifier = {
				factor = 0.95
				mil = 6
			}
			modifier = {
				factor = 0.95
				dip = 4
			}
			modifier = {
				factor = 0.95
				dip = 5
			}
			modifier = {
				factor = 0.95
				dip = 6
			}
			modifier = {
				factor = 0.95
				adm = 4
			}
			modifier = {
				factor = 0.95
				adm = 5
			}
			modifier = {
				factor = 0.95
				adm = 6
			}
			modifier = {
				factor = 0.85
				has_ruler_flag = xhazobkult_sacrifice_of_own_blood
			}
			modifier = {
				factor = 0.7
				has_ruler_flag = xhazobkult_sacrifice_of_the_masses
			}
			modifier = {
				factor = 0.8
				has_ruler_flag = xhazobkult_sacrifice_of_might
			}
			modifier = {
				factor = 0.8
				has_ruler_flag = xhazobkult_sacrifice_of_mind
			}
			modifier = {
				factor = 0.8
				has_ruler_flag = xhazobkult_sacrifice_of_speech
			}
			modifier = {
				factor = 0.85
				has_ruler_flag = xhazobkult_sacrifice_of_gold
			}
			modifier = {
				factor = 0.8
				has_ruler_flag = xhazobkult_sacrifice_of_chaos
			}
			modifier = {
				factor = 0.7
				has_ruler_flag = xhazobkult_sacrifice_of_servitude
			}
		}
		random_list = {
			1 = {
				country_event = {
					id = xhazobkult_events.1004
				}
			}
			1 = {
				country_event = {
					id = xhazobkult_events.1005
				}
			}
		}
	}
}
country_event = { #The demon agrees
	id = xhazobkult_events.1003
	title = xhazobkult_events.1003.t
	desc = xhazobkult_events.1003.d
	picture = MILITARY_CAMP_eventPicture
	
	is_triggered_only = yes
	
	option = {
		name = xhazobkult_events.1003.a
		ai_chance = { factor = 1 }
		
		force_add_ruler_personality = { personality = mage_personality }
		hidden_effect = {
			country_event = {
				id = magic_ruler.102
			}
			magic_study_level_up_evocation = yes
		}
	}
}
country_event = { #The demon refuses: kill ruler
	id = xhazobkult_events.1004
	title = xhazobkult_events.1004.t
	desc = xhazobkult_events.1004.d
	picture = MILITARY_CAMP_eventPicture
	
	is_triggered_only = yes
	
	option = {
		name = xhazobkult_events.1004.a
		ai_chance = { factor = 1 }
		
		kill_ruler = yes
	}
}
country_event = { #The demon refuses: ruler lives (go mad?)
	id = xhazobkult_events.1005
	title = xhazobkult_events.1005.t
	desc = xhazobkult_events.1005.d
	picture = MILITARY_CAMP_eventPicture
	
	is_triggered_only = yes
	
	option = {
		name = xhazobkult_events.1005.a
		ai_chance = { factor = 1 }
		
	}
}

country_event = {
	id = xhazobkult_events.2000
	title = xhazobkult_events.2000.t
	desc = xhazobkult_events.2000.d
	picture = MILITARY_CAMP_eventPicture
	
	is_triggered_only = yes
	hidden = yes
	
	trigger = {
		religion = xhazobkult
	}
	
	immediate = {
		remove_country_modifier = xhazobkult_tributaries_1
		remove_country_modifier = xhazobkult_tributaries_2
		remove_country_modifier = xhazobkult_tributaries_3
		remove_country_modifier = xhazobkult_tributaries_4
		remove_country_modifier = xhazobkult_tributaries_5
		remove_country_modifier = xhazobkult_tributaries_6
		remove_country_modifier = xhazobkult_tributaries_7
		remove_country_modifier = xhazobkult_tributaries_8
		remove_country_modifier = xhazobkult_tributaries_9
		remove_country_modifier = xhazobkult_tributaries_10
		
		calc_tributary_dev_proportion = yes
	}
	
	option = {
		name = xhazobkult_events.2000.a
		ai_chance = { factor = 1 }
		
		xhazobkult_calc_tributary_proportion = yes
		xhazobkult_privilege_the_weak_serve_the_strong_effect = yes
	}
}


#Demonsterization event for changing religion based on your school
country_event = {
	id = xhazobkult_events.2001
	title = xhazobkult_events.2001.t
	desc = xhazobkult_events.2001.d
	picture = THE_COVENANT_eventPicture
	
	is_triggered_only = yes

	trigger = {
		religion = xhazobkult
		has_country_flag = removing_monstrous
	}

	#Nirakhetist
	option = {
		name = xhazobkult_events.2001.b
		trigger = {
			OR = {
				religious_school = {
					group = gnollish
					school = demons_of_the_sorrow_tradition
				}
				has_country_modifier = demons_of_the_sorrow_tradition_modifier
			}	
		}
		add_stability = -2
		change_religion = nirakhetist
		decrease_monstrous_10 = yes
	}
	#OSC
	option = {
		name = xhazobkult_events.2001.c
		trigger = {
			OR = {
				AND = {
					religious_school = {
						group = gnollish
						school = monstrous_pedigrees_tradition
					}
					NOT = { tag = A49 }
				}
				has_country_modifier = monstrous_pedigrees_tradition_modifier
			}			
		}
		add_stability = -2
		change_religion = old_bulwari_sun_cult
		decrease_monstrous_10 = yes
	}
	#Regent Court
	option = {
		name = xhazobkult_events.2001.j
		trigger = {
			tag = A49
		}
		add_stability = -2
		change_religion = regent_court
		decrease_monstrous_10 = yes
	}
	#Fangaulan Pantheon
	option = {
		name = xhazobkult_events.2001.e
		trigger = {
			OR = {
				religious_school = {
					group = gnollish
					school = children_of_goxma_tradition
				}
				has_country_modifier = children_of_goxma_tradition_modifier
			}	
		}
		add_stability = -2
		change_religion = fangaulan_pantheon
		decrease_monstrous_10 = yes
	}
	#Kvangahga
	option = {
		name = xhazobkult_events.2001.f
		trigger = {
			OR = {
				religious_school = {
					group = gnollish
					school = kult_of_the_packmother_tradition
				}
				has_country_modifier = kult_of_the_packmother_tradition_modifier
			}	
		}
		add_stability = -2
		change_religion = kvangahga
		decrease_monstrous_10 = yes
	}
	#Shadowpact
	option = {
		name = xhazobkult_events.2001.g
		trigger = {
			OR = {
				religious_school = {
					group = gnollish
					school = umbral_bargains_tradition
				}
				has_country_modifier = umbral_bargains_tradition_modifier
			}	
		}
		add_stability = -2
		change_religion = shadow_pact
		decrease_monstrous_10 = yes
	}
	#Demonic Shamans Refuse
	option = {
		name = xhazobkult_events.2001.h
		trigger = {
			OR = {
				religious_school = {
					group = gnollish
					school = demonic_shamans_tradition
				}
				has_country_modifier = demonic_shamans_tradition_modifier
			}	
		}
		add_stability = 1
		add_patriarch_authority = 0.1
		add_mil_power = 100
		increase_monstrous_5 = yes
	}
	#Refuse
	option = {
		name = xhazobkult_events.2001.i
		add_stability = 1
		increase_monstrous_2 = yes
	}
}

###########################
###   Great Xhaz    ###
###########################

#xhaz dies
country_event = {
	id = xhazobkult_events.3000
	title = xhazobkult_events.3000.t
	desc = xhazobkult_events.3000.d
	picture = LOOMING_DEATH_eventPicture
	
	is_triggered_only = yes
	
	trigger = {
		has_country_flag = is_great_xhaz
	}
	
	immediate = {
		hidden_effect = {
			clr_country_flag = is_great_xhaz
			clr_global_flag = xhaz_active 
		}
	}
	
	option = {
		name = xhazobkult_events.3000.a	
		add_stability = -3
		add_patriarch_authority = -1

		hidden_effect = {
			restore_country_color = yes
			restore_country_name = yes
			every_owned_province = {
				limit = { NOT = { religion = xhazobkult } }
				add_unrest = 10
			}
			for = {
				amount = 10
				effect = "random_owned_province = { limit = { NOT = { religion = xhazobkult } } spawn_rebels = { type = nationalist_rebels size = 2 win = yes } }"
			}
		}
		custom_tooltip = xhazobkult_xhazobine_dies_tt
	}
}

#xhaz success
country_event = {
	id = xhazobkult_events.3001
	title = xhazobkult_events.3001.t
	desc = xhazobkult_events.3001.d
	picture = WITCHBURNING_eventPicture
	
	is_triggered_only = yes
	major = yes

	major_trigger = {
		OR = {
			religion = xhazobkult
			same_continent = ROOT
			is_rival = ROOT
			is_enemy = ROOT
		}
	}
	
	trigger = {
		has_ruler_flag = undergoing_xhazob_ritual
	}

	immediate = {
		hidden_effect = {
			clr_ruler_flag = undergoing_xhazob_ritual
			set_country_flag = is_great_xhaz
			every_country = {
				limit = { has_ruler_flag = undergoing_xhazob_ritual }
				country_event = { id = xhazobkult_events.3003 } #too late
			}
		}
	}

	option = {
		name = xhazobkult_events.3001.a
		override_country_name = GREAT_XHAZ
		tooltip = {
			add_ruler_personality = xhazobs_chosen_personality
			add_ruler_personality = mage_personality
		}
		hidden_effect = {
			force_add_ruler_personality = { personality = mage_personality }
			force_add_ruler_personality = { personality = xhazobs_chosen_personality }
		}
		custom_tooltip = "Gain Xhazob's Chosen Ruler Personality"
		
		hidden_effect = {
			country_event = { id = magic_ruler.102 } #magic schools
			country_event = { id = magic_ruler.100 } #make them a mage general
			change_country_color = { color = { 181 230 29 } }
			set_global_flag = xhaz_active
		}
	}
}

#xhaz failed
country_event = {
	id = xhazobkult_events.3002
	title = xhazobkult_events.3002.t
	desc = xhazobkult_events.3002.d
	picture = LOOMING_DEATH_eventPicture

	trigger = {
		has_ruler_flag = undergoing_xhazob_ritual
	}
	
	is_triggered_only = yes
	
	option = {
		name = xhazobkult_events.3002.a
		kill_heir = { allow_new_heir = no }
		kill_ruler = yes
		add_stability = -3
		add_patriarch_authority = -1

		hidden_effect = {
			every_owned_province = {
				add_devastation = 40
				add_local_autonomy = 20
			}
			for = {
				amount = 7
				effect = "random_owned_province = { limit = { NOT = { religion = xhazobkult } } spawn_rebels = { type = nationalist_rebels size = 1.5 } }"
			}
		}
		custom_tooltip = xhazobkult_fail_effects_tt
	}
}

#xhaz too late
country_event = {
	id = xhazobkult_events.3003
	title = xhazobkult_events.3003.t
	desc = xhazobkult_events.3003.d
	picture = THE_COVENANT_eventPicture

	is_triggered_only = yes

	trigger = {
		religion = xhazobkult
		culture_group = gnollish
		has_ruler_flag = undergoing_xhazob_ritual
	}
	
	option = {
		name = xhazobkult_events.3003.a
		kill_ruler = yes
		custom_tooltip = xhazobkult_too_late_tt
	}
}

#ai point boost
country_event = {
	id = xhazobkult_events.3010
	title = xhazobkult_events.3003.t
	desc = xhazobkult_events.3003.d
	picture = THE_COVENANT_eventPicture
	
	trigger = {
		has_ruler_flag = undergoing_xhazob_ritual
		ai = yes
	}
	
	is_triggered_only = yes
	
	option = {
		name = xhazobkult_events.3003.a
		
		random_list = {
			30 = {
				modifier = {
					factor = 0.9
					mil = 4
				}
				modifier = {
					factor = 0.9
					mil = 5
				}
				modifier = {
					factor = 0.9
					mil = 6
				}
				modifier = {
					factor = 0.8
					ruler_has_personality = mage_personality
				}
				modifier = {
					factor = 0.8
					num_of_subjects = 3
				}
				modifier = {
					factor = 0.8
					num_of_subjects = 6
				}
			}

			25 = { 
				change_variable = { provincesrazed = 4 }
			}

			25 = { 
				change_variable = { provincesrazed = 8 }
			}

			20 = {
				change_variable = { provincesrazed = 12 }
			}
		}
	}
}